18 Time Series Forecasting | R for Geospatial Sciences
…
# tune the model based on the training data
workflow_trained <- workflow_glmnet
workflow_trained = fit(workflow_glmnet, data = train)

# predict the test air temperature based on our model
prediction_tbl = predict(workflow_trained, test)
prediction_tbl = bind_cols(prediction_tbl, test) 
prediction_tbl

## # A tibble: 214 x 3
##    .pred date                air_temperature
##    <dbl> <dttm>                        <dbl>
##  1  64.5 2012-06-01 23:00:00            54.7
##  2  65.8 2012-06-02 23:00:00            59.4
##  3  67.1 2012-06-03 23:00:00            63.6
##  4  72.4 2012-06-04 23:00:00            64.6
##  5  77.6 2012-06-05 23:00:00            61.5
##  6  69.0 2012-06-06 23:00:00            62.1
##  7  64.6 2012-06-07 23:00:00            66.3
##  8  69.1 2012-06-08 23:00:00            68.3
##  9  69.6 2012-06-09 23:00:00            74.9
## 10  65.3 2012-06-10 23:00:00            73.8
## # … with 204 more rows
…
